{
  "playlists": {
    "href": "https://api.spotify.com/v1/browse/categories/toplists/playlists?offset=0&limit=50",
    "items": [
      {
        "collaborative": false,
        "description": "Eine Playlist der Superlative vollgepackt mit den besten und größten aktuellen Hits. Cover: Surf Mesa",
        "external_urls": {
          "spotify": "https://open.spotify.com/playlist/37i9dQZF1DX4jP4eebSWR9"
        },
        "href": "https://api.spotify.com/v1/playlists/37i9dQZF1DX4jP4eebSWR9",
        "id": "37i9dQZF1DX4jP4eebSWR9",
        "images": [
          {
            "height": null,
            "url": "https://i.scdn.co/image/ab67706f00000002a7daae63555cf44a5c9b67a7",
            "width": null
          }
        ],
        "name": "Top Hits Deutschland",
        "owner": {
          "display_name": "Spotify",
          "external_urls": {
            "spotify": "https://open.spotify.com/user/spotify"
          },
          "href": "https://api.spotify.com/v1/users/spotify",
          "id": "spotify",
          "type": "user",
          "uri": "spotify:user:spotify"
        },
        "primary_color": null,
        "public": null,
        "snapshot_id": "MTU4Njg3Nzg0NSwwMDAwMDBlNTAwMDAwMTcxNzk0YTRmYmUwMDAwMDE3MTc5MzYwOTMz",
        "tracks": {
          "href": "https://api.spotify.com/v1/playlists/37i9dQZF1DX4jP4eebSWR9/tracks",
          "total": 50
        },
        "type": "playlist",
        "uri": "spotify:playlist:37i9dQZF1DX4jP4eebSWR9"
      },
      {
        "collaborative": false,
        "description": "Peak time bangers and emerging future hits. Cover: Dimitri Vegas & Like Mike, Quintino",
        "external_urls": {
          "spotify": "https://open.spotify.com/playlist/37i9dQZF1DX7ZUug1ANKRP"
        },
        "href": "https://api.spotify.com/v1/playlists/37i9dQZF1DX7ZUug1ANKRP",
        "id": "37i9dQZF1DX7ZUug1ANKRP",
        "images": [
          {
            "height": null,
            "url": "https://i.scdn.co/image/ab67706f000000028cff45e1e73a1ec4e2435bde",
            "width": null
          }
        ],
        "name": "Main Stage",
        "owner": {
          "display_name": "Spotify",
          "external_urls": {
            "spotify": "https://open.spotify.com/user/spotify"
          },
          "href": "https://api.spotify.com/v1/users/spotify",
          "id": "spotify",
          "type": "user",
          "uri": "spotify:user:spotify"
        },
        "primary_color": null,
        "public": null,
        "snapshot_id": "MTU4Njk3MDU4MywwMDAwMDEwYjAwMDAwMTcxN2VkMTYxODcwMDAwMDE3MTdlZDBlODgy",
        "tracks": {
          "href": "https://api.spotify.com/v1/playlists/37i9dQZF1DX7ZUug1ANKRP/tracks",
          "total": 50
        },
        "type": "playlist",
        "uri": "spotify:playlist:37i9dQZF1DX7ZUug1ANKRP"
      },
      {
        "collaborative": false,
        "description": "Die wichtigste HipHop-Playlist Deutschlands. Cover: Samra",
        "external_urls": {
          "spotify": "https://open.spotify.com/playlist/37i9dQZF1DX36edUJpD76c"
        },
        "href": "https://api.spotify.com/v1/playlists/37i9dQZF1DX36edUJpD76c",
        "id": "37i9dQZF1DX36edUJpD76c",
        "images": [
          {
            "height": null,
            "url": "https://i.scdn.co/image/ab67706f000000023b10923ec0a162182f2670f8",
            "width": null
          }
        ],
        "name": "Modus Mio",
        "owner": {
          "display_name": "Spotify",
          "external_urls": {
            "spotify": "https://open.spotify.com/user/spotify"
          },
          "href": "https://api.spotify.com/v1/users/spotify",
          "id": "spotify",
          "type": "user",
          "uri": "spotify:user:spotify"
        },
        "primary_color": null,
        "public": null,
        "snapshot_id": "MTU4Njc2NjEwMSwwMDAwMDNlMjAwMDAwMTcxNzJhMTNjZmYwMDAwMDE3MTU4ZWE4MGI2",
        "tracks": {
          "href": "https://api.spotify.com/v1/playlists/37i9dQZF1DX36edUJpD76c/tracks",
          "total": 50
        },
        "type": "playlist",
        "uri": "spotify:playlist:37i9dQZF1DX36edUJpD76c"
      },
      {
        "collaborative": false,
        "description": "Jeden Freitag gibt's hier die besten Neuerscheinungen der Woche in einer Playlist. Cover: Alesso, Liam Payne",
        "external_urls": {
          "spotify": "https://open.spotify.com/playlist/37i9dQZF1DWUW2bvSkjcJ6"
        },
        "href": "https://api.spotify.com/v1/playlists/37i9dQZF1DWUW2bvSkjcJ6",
        "id": "37i9dQZF1DWUW2bvSkjcJ6",
        "images": [
          {
            "height": null,
            "url": "https://i.scdn.co/image/ab67706f00000002be2e1f9af421d85605944f7d",
            "width": null
          }
        ],
        "name": "New Music Friday Deutschland",
        "owner": {
          "display_name": "Spotify",
          "external_urls": {
            "spotify": "https://open.spotify.com/user/spotify"
          },
          "href": "https://api.spotify.com/v1/users/spotify",
          "id": "spotify",
          "type": "user",
          "uri": "spotify:user:spotify"
        },
        "primary_color": null,
        "public": null,
        "snapshot_id": "MTU4NjQ2OTcyMCwwMDAwMDE4OTAwMDAwMTcxNjBmNmQwOGUwMDAwMDE3MTVmYjk3MWVk",
        "tracks": {
          "href": "https://api.spotify.com/v1/playlists/37i9dQZF1DWUW2bvSkjcJ6/tracks",
          "total": 80
        },
        "type": "playlist",
        "uri": "spotify:playlist:37i9dQZF1DWUW2bvSkjcJ6"
      },
      {
        "collaborative": false,
        "description": "<a href=\"spotify:genre:edm_dance\">The dance music condition</a> with Martin Solveig and Michael Calfan",
        "external_urls": {
          "spotify": "https://open.spotify.com/playlist/37i9dQZF1DX4dyzvuaRJ0n"
        },
        "href": "https://api.spotify.com/v1/playlists/37i9dQZF1DX4dyzvuaRJ0n",
        "id": "37i9dQZF1DX4dyzvuaRJ0n",
        "images": [
          {
            "height": null,
            "url": "https://i.scdn.co/image/ab67706f00000002c1a24f1b5a9df3f1710af793",
            "width": null
          }
        ],
        "name": "mint",
        "owner": {
          "display_name": "Spotify",
          "external_urls": {
            "spotify": "https://open.spotify.com/user/spotify"
          },
          "href": "https://api.spotify.com/v1/users/spotify",
          "id": "spotify",
          "type": "user",
          "uri": "spotify:user:spotify"
        },
        "primary_color": null,
        "public": null,
        "snapshot_id": "MTU4NzA1MDM0OCwwMDAwMDAwMGQ0MWQ4Y2Q5OGYwMGIyMDRlOTgwMDk5OGVjZjg0Mjdl",
        "tracks": {
          "href": "https://api.spotify.com/v1/playlists/37i9dQZF1DX4dyzvuaRJ0n/tracks",
          "total": 66
        },
        "type": "playlist",
        "uri": "spotify:playlist:37i9dQZF1DX4dyzvuaRJ0n"
      },
      {
        "collaborative": false,
        "description": "New music from Tory Lanez and Polo G.",
        "external_urls": {
          "spotify": "https://open.spotify.com/playlist/37i9dQZF1DX0XUsuxWHRQd"
        },
        "href": "https://api.spotify.com/v1/playlists/37i9dQZF1DX0XUsuxWHRQd",
        "id": "37i9dQZF1DX0XUsuxWHRQd",
        "images": [
          {
            "height": null,
            "url": "https://i.scdn.co/image/ab67706f000000025cbd43ee6fa4f47689a3bd37",
            "width": null
          }
        ],
        "name": "RapCaviar",
        "owner": {
          "display_name": "Spotify",
          "external_urls": {
            "spotify": "https://open.spotify.com/user/spotify"
          },
          "href": "https://api.spotify.com/v1/users/spotify",
          "id": "spotify",
          "type": "user",
          "uri": "spotify:user:spotify"
        },
        "primary_color": null,
        "public": null,
        "snapshot_id": "MTU4Njk5NzA0MiwwMDAwMDQ0YjAwMDAwMTcxODA2NTFlMTYwMDAwMDE3MTVhYjFkYzI1",
        "tracks": {
          "href": "https://api.spotify.com/v1/playlists/37i9dQZF1DX0XUsuxWHRQd/tracks",
          "total": 50
        },
        "type": "playlist",
        "uri": "spotify:playlist:37i9dQZF1DX0XUsuxWHRQd"
      },
      {
        "collaborative": false,
        "description": "The newest from The Strokes along with the top Rock songs you need to know!",
        "external_urls": {
          "spotify": "https://open.spotify.com/playlist/37i9dQZF1DXcF6B6QPhFDv"
        },
        "href": "https://api.spotify.com/v1/playlists/37i9dQZF1DXcF6B6QPhFDv",
        "id": "37i9dQZF1DXcF6B6QPhFDv",
        "images": [
          {
            "height": null,
            "url": "https://i.scdn.co/image/ab67706f000000027601cad0003cb5dc1404031e",
            "width": null
          }
        ],
        "name": "Rock This",
        "owner": {
          "display_name": "Spotify",
          "external_urls": {
            "spotify": "https://open.spotify.com/user/spotify"
          },
          "href": "https://api.spotify.com/v1/users/spotify",
          "id": "spotify",
          "type": "user",
          "uri": "spotify:user:spotify"
        },
        "primary_color": null,
        "public": null,
        "snapshot_id": "MTU4Njk1NzMyMywwMDAwMDI2NDAwMDAwMTcxN2UwNzBjMDcwMDAwMDE3MTYwMTY2NWM3",
        "tracks": {
          "href": "https://api.spotify.com/v1/playlists/37i9dQZF1DXcF6B6QPhFDv/tracks",
          "total": 51
        },
        "type": "playlist",
        "uri": "spotify:playlist:37i9dQZF1DXcF6B6QPhFDv"
      },
      {
        "collaborative": false,
        "description": "The hottest R&B tunes!  Cover: Usher",
        "external_urls": {
          "spotify": "https://open.spotify.com/playlist/37i9dQZF1DX4SBhb3fqCJd"
        },
        "href": "https://api.spotify.com/v1/playlists/37i9dQZF1DX4SBhb3fqCJd",
        "id": "37i9dQZF1DX4SBhb3fqCJd",
        "images": [
          {
            "height": null,
            "url": "https://i.scdn.co/image/ab67706f000000024b47c2f8549f357230bc5ec9",
            "width": null
          }
        ],
        "name": "Are & Be",
        "owner": {
          "display_name": "Spotify",
          "external_urls": {
            "spotify": "https://open.spotify.com/user/spotify"
          },
          "href": "https://api.spotify.com/v1/users/spotify",
          "id": "spotify",
          "type": "user",
          "uri": "spotify:user:spotify"
        },
        "primary_color": null,
        "public": null,
        "snapshot_id": "MTU4Njc5NTcwMSwwMDAwMDEzMjAwMDAwMTcxNzQ2NGU2NzIwMDAwMDE3MTYxZDc2MTY5",
        "tracks": {
          "href": "https://api.spotify.com/v1/playlists/37i9dQZF1DX4SBhb3fqCJd/tracks",
          "total": 38
        },
        "type": "playlist",
        "uri": "spotify:playlist:37i9dQZF1DX4SBhb3fqCJd"
      },
      {
        "collaborative": false,
        "description": "The hottest viral tracks in one playlist! Cover: DJ Khaled, Justin Bieber, Chance The Rapper and Quavo",
        "external_urls": {
          "spotify": "https://open.spotify.com/playlist/37i9dQZF1DX44t7uCdkV1A"
        },
        "href": "https://api.spotify.com/v1/playlists/37i9dQZF1DX44t7uCdkV1A",
        "id": "37i9dQZF1DX44t7uCdkV1A",
        "images": [
          {
            "height": null,
            "url": "https://i.scdn.co/image/ab67706f00000002d1ab7dab89e2ef6722f23e37",
            "width": null
          }
        ],
        "name": "Viral Hits",
        "owner": {
          "display_name": "Spotify",
          "external_urls": {
            "spotify": "https://open.spotify.com/user/spotify"
          },
          "href": "https://api.spotify.com/v1/users/spotify",
          "id": "spotify",
          "type": "user",
          "uri": "spotify:user:spotify"
        },
        "primary_color": null,
        "public": null,
        "snapshot_id": "MTU2NzY3NjM4OSwwMDAwMDA0YTAwMDAwMTY1N2JmNTkzZTkwMDAwMDE2ZDAwY2I1OGI5",
        "tracks": {
          "href": "https://api.spotify.com/v1/playlists/37i9dQZF1DX44t7uCdkV1A/tracks",
          "total": 25
        },
        "type": "playlist",
        "uri": "spotify:playlist:37i9dQZF1DX44t7uCdkV1A"
      },
      {
        "collaborative": false,
        "description": "Discover the best new music from independent artists and labels. Cover: Luz",
        "external_urls": {
          "spotify": "https://open.spotify.com/playlist/37i9dQZF1DWWjGdmeTyeJ6"
        },
        "href": "https://api.spotify.com/v1/playlists/37i9dQZF1DWWjGdmeTyeJ6",
        "id": "37i9dQZF1DWWjGdmeTyeJ6",
        "images": [
          {
            "height": null,
            "url": "https://i.scdn.co/image/ab67706f00000002ac3c6a68d24984d65de7a33a",
            "width": null
          }
        ],
        "name": "Fresh Finds",
        "owner": {
          "display_name": "Spotify",
          "external_urls": {
            "spotify": "https://open.spotify.com/user/spotify"
          },
          "href": "https://api.spotify.com/v1/users/spotify",
          "id": "spotify",
          "type": "user",
          "uri": "spotify:user:spotify"
        },
        "primary_color": null,
        "public": null,
        "snapshot_id": "MTU4Njk2NjM0OSwwMDAwMDBkYzAwMDAwMTcxN2U5MGM4NzYwMDAwMDE3MTdlOTAwYmNi",
        "tracks": {
          "href": "https://api.spotify.com/v1/playlists/37i9dQZF1DWWjGdmeTyeJ6/tracks",
          "total": 51
        },
        "type": "playlist",
        "uri": "spotify:playlist:37i9dQZF1DWWjGdmeTyeJ6"
      },
      {
        "collaborative": false,
        "description": "Your daily update of the most played tracks in Germany right now.",
        "external_urls": {
          "spotify": "https://open.spotify.com/playlist/37i9dQZEVXbJiZcmkrIHGU"
        },
        "href": "https://api.spotify.com/v1/playlists/37i9dQZEVXbJiZcmkrIHGU",
        "id": "37i9dQZEVXbJiZcmkrIHGU",
        "images": [
          {
            "height": null,
            "url": "https://charts-images.scdn.co/REGIONAL_DE_DEFAULT.jpg",
            "width": null
          }
        ],
        "name": "Germany Top 50",
        "owner": {
          "display_name": "spotifycharts",
          "external_urls": {
            "spotify": "https://open.spotify.com/user/spotifycharts"
          },
          "href": "https://api.spotify.com/v1/users/spotifycharts",
          "id": "spotifycharts",
          "type": "user",
          "uri": "spotify:user:spotifycharts"
        },
        "primary_color": null,
        "public": null,
        "snapshot_id": "NjQwMzYxNzg1LDAwMDAwMDAwMDAwMDAwMDAwMDAwMDAwMDAwMDAwMDAwMDAwMDY1NmU=",
        "tracks": {
          "href": "https://api.spotify.com/v1/playlists/37i9dQZEVXbJiZcmkrIHGU/tracks",
          "total": 50
        },
        "type": "playlist",
        "uri": "spotify:playlist:37i9dQZEVXbJiZcmkrIHGU"
      },
      {
        "collaborative": false,
        "description": "Your daily update of the most played tracks right now.",
        "external_urls": {
          "spotify": "https://open.spotify.com/playlist/37i9dQZEVXbMDoHDwVN2tF"
        },
        "href": "https://api.spotify.com/v1/playlists/37i9dQZEVXbMDoHDwVN2tF",
        "id": "37i9dQZEVXbMDoHDwVN2tF",
        "images": [
          {
            "height": null,
            "url": "https://charts-images.scdn.co/REGIONAL_GLOBAL_DEFAULT.jpg",
            "width": null
          }
        ],
        "name": "Global Top 50",
        "owner": {
          "display_name": "spotifycharts",
          "external_urls": {
            "spotify": "https://open.spotify.com/user/spotifycharts"
          },
          "href": "https://api.spotify.com/v1/users/spotifycharts",
          "id": "spotifycharts",
          "type": "user",
          "uri": "spotify:user:spotifycharts"
        },
        "primary_color": null,
        "public": null,
        "snapshot_id": "NjQwMzYxNzgwLDAwMDAwMDAwMDAwMDAwMDAwMDAwMDAwMDAwMDAwMDAwMDAwMDY1NmU=",
        "tracks": {
          "href": "https://api.spotify.com/v1/playlists/37i9dQZEVXbMDoHDwVN2tF/tracks",
          "total": 50
        },
        "type": "playlist",
        "uri": "spotify:playlist:37i9dQZEVXbMDoHDwVN2tF"
      },
      {
        "collaborative": false,
        "description": "Your daily update of the most viral tracks in the world.",
        "external_urls": {
          "spotify": "https://open.spotify.com/playlist/37i9dQZEVXbLiRSasKsNU9"
        },
        "href": "https://api.spotify.com/v1/playlists/37i9dQZEVXbLiRSasKsNU9",
        "id": "37i9dQZEVXbLiRSasKsNU9",
        "images": [
          {
            "height": null,
            "url": "https://charts-images.scdn.co/VIRAL_GLOBAL_DEFAULT.jpg",
            "width": null
          }
        ],
        "name": "Global Viral 50",
        "owner": {
          "display_name": "spotifycharts",
          "external_urls": {
            "spotify": "https://open.spotify.com/user/spotifycharts"
          },
          "href": "https://api.spotify.com/v1/users/spotifycharts",
          "id": "spotifycharts",
          "type": "user",
          "uri": "spotify:user:spotifycharts"
        },
        "primary_color": null,
        "public": null,
        "snapshot_id": "NjQwMjgwNjc5LDAwMDAwMDAwMDAwMDAwMDAwMDAwMDAwMDAwMDAwMDAwMDAwMDY1NmU=",
        "tracks": {
          "href": "https://api.spotify.com/v1/playlists/37i9dQZEVXbLiRSasKsNU9/tracks",
          "total": 50
        },
        "type": "playlist",
        "uri": "spotify:playlist:37i9dQZEVXbLiRSasKsNU9"
      },
      {
        "collaborative": false,
        "description": "Your daily update of the most viral tracks in Germany.",
        "external_urls": {
          "spotify": "https://open.spotify.com/playlist/37i9dQZEVXbNv6cjoMVCyg"
        },
        "href": "https://api.spotify.com/v1/playlists/37i9dQZEVXbNv6cjoMVCyg",
        "id": "37i9dQZEVXbNv6cjoMVCyg",
        "images": [
          {
            "height": null,
            "url": "https://charts-images.scdn.co/VIRAL_DE_DEFAULT.jpg",
            "width": null
          }
        ],
        "name": "Germany Viral 50",
        "owner": {
          "display_name": "spotifycharts",
          "external_urls": {
            "spotify": "https://open.spotify.com/user/spotifycharts"
          },
          "href": "https://api.spotify.com/v1/users/spotifycharts",
          "id": "spotifycharts",
          "type": "user",
          "uri": "spotify:user:spotifycharts"
        },
        "primary_color": null,
        "public": null,
        "snapshot_id": "NjQwMjgwNjc5LDAwMDAwMDAwMDAwMDAwMDAwMDAwMDAwMDAwMDAwMDAwMDAwMDY1NmU=",
        "tracks": {
          "href": "https://api.spotify.com/v1/playlists/37i9dQZEVXbNv6cjoMVCyg/tracks",
          "total": 50
        },
        "type": "playlist",
        "uri": "spotify:playlist:37i9dQZEVXbNv6cjoMVCyg"
      },
      {
        "collaborative": false,
        "description": "Hot Country's Top 50 songs from 2018.  Congratulations to Florida Georgia Line.  Our top streaming artist of the year!",
        "external_urls": {
          "spotify": "https://open.spotify.com/playlist/37i9dQZF1DX6P1Nsk3wSZX"
        },
        "href": "https://api.spotify.com/v1/playlists/37i9dQZF1DX6P1Nsk3wSZX",
        "id": "37i9dQZF1DX6P1Nsk3wSZX",
        "images": [
          {
            "height": null,
            "url": "https://i.scdn.co/image/ab67706f000000024bbda0e88c2c24eaf12059f6",
            "width": null
          }
        ],
        "name": "Hot Country - Top Tracks of 2018",
        "owner": {
          "display_name": "Spotify",
          "external_urls": {
            "spotify": "https://open.spotify.com/user/spotify"
          },
          "href": "https://api.spotify.com/v1/users/spotify",
          "id": "spotify",
          "type": "user",
          "uri": "spotify:user:spotify"
        },
        "primary_color": null,
        "public": null,
        "snapshot_id": "MTU4MzQ4NzcxMywwMDAwMDAwMjAwMDAwMTY3YTgxYzIxNDMwMDAwMDE3MGFmMzhmZjRl",
        "tracks": {
          "href": "https://api.spotify.com/v1/playlists/37i9dQZF1DX6P1Nsk3wSZX/tracks",
          "total": 50
        },
        "type": "playlist",
        "uri": "spotify:playlist:37i9dQZF1DX6P1Nsk3wSZX"
      }
    ],
    "limit": 50,
    "next": null,
    "offset": 0,
    "previous": null,
    "total": 15
  }
}
